{
  "title": "Control to ESC, enable Control when held",
  "rules": [
    {
      "description": "Control to ESC on single press, Control on press and hold.",
      "manipulators": [
        {
          "type": "basic",
          "from": {
            "key_code": "left_control",
            "modifiers": {
              "optional": [
                "any"
              ]
            }
          },
          "to": [
            {
              "key_code": "left_control"
            }
          ],
          "to_if_alone": [
            {
              "key_code": "escape"
            }
          ]
        }
      ]
    }
  ]
}
