{
  "title": "CTRL + open square bracket to ESC",
  "rules": [
    {
      "description": "CTRL + open square bracket to ESC",
      "manipulators": [
        {
          "from": {
            "key_code": "open_bracket",
            "modifiers": {
              "mandatory": [ "left_control" ],
              "optional": ["any"]
            }
          },
          "to": [
            {
              "key_code": "escape",
              "repeat": false
            }
          ],
          "conditions": [
            {
              "type": "frontmost_application_unless",
              "bundle_identifiers": [
                "^com\\.philandro\\.anydesk"
              ]
            }
          ],
          "type": "basic"
        }
      ]
    }
  ]
}
